{
  "name": "",
  "version": "0.0.0",
  "description": "",
  "sampleUrl": false,
  "defaultVersion": "0.0.0",
  "apidoc": "0.3.0",
  "generator": {
    "name": "apidoc",
    "time": "2019-02-25T06:38:58.291Z",
    "url": "http://apidocjs.com",
    "version": "0.17.7"
  }
}
